{
  "players": [
    {
      "name": "Rambo: First blood",
      "number": "52",
      "title": "LIMITED MISSION NAME",
      "description": "Lorem ipsum dolor sit amet, consectetur adipisicing elit, sed do eiusmod tempor incididunt ut labore et dolore magna aliqua. Ut enim ad minim veniam, quis nostrud exercitation ullamco laboris nisi ut aliquip ex ea commodo consequat.",
      "points": "243",
      "author": "Ingeborge_Dopkunayte",
      "author_ava": "images/avatar-2.png",
      "image": "images/view-bg.png"
    },
    {
      "name": "Sanya: JS is the best!",
      "number": "53",
      "title": "HTML5 ROCKS!",
      "description": "tur adipisicing elit, sed do eiusmod tempor incididunt ut labore et dolore magna aliqua. Ut enim ad minim veniam, quis nostrud exercitation ullamco laboris nisi ut aliquip ex ea commodo consequat Lorem ipsum dolor sit amet, consecte.",
      "points": "999",
      "author": "nikulinsanya",
      "author_ava": "images/avatar-1.png",
      "image":"images/rocks1.jpeg"
    },
    {
      "name": "My.com: Games are here!",
      "number": "55",
      "title": "The game publisher",
      "description": "tiusmod tempor incididunt ut labore et dolore magna aliqua. Ut enim ad minim veniam, quis nostrud exercitation ullamco laboris nisi ut aliquip ex ea commodo consequat Lorem ipsum dolor sit amet, consecte ur adipisicing elit, sed do e.",
      "points": "449",
      "author": "Mail.ru",
      "author_ava": "images/avatar-2.png",
      "image":"images/mail.ru_.gif"
    }
  ]
}